^C:\USERS\HAKAN\DESKTOP\PROJE\ABOUT.H
setlocalif errorlevel 1 goto VCEndif errorlevel 1 goto VCEndendlocal"C:\Qt\5.4\msvc2012_opengl\bin\moc.exe"  "C:\Users\Hakan\Desktop\Proje\about.h" -o "Release\moc_about.cpp"  -D_WINDOWS -DUNICODE -DWIN32 -DQT_NO_DEBUG -DQT_MULTIMEDIA_LIB -DQT_WIDGETS_LIB -DQT_GUI_LIB -DQT_NETWORK_LIB -DQT_CORE_LIB -DNDEBUG  "-IC:\opencv\build\include\opencv2" "-IC:\opencv\build\include\opencv" "-IC:\opencv\build\include" "-I.\..\..\..\..\qt\5.4\msvc2012_opengl\include" "-I.\..\..\..\..\qt\5.4\msvc2012_opengl\include\QtMultimedia" "-I.\..\..\..\..\qt\5.4\msvc2012_opengl\include\QtWidgets" "-I.\..\..\..\..\qt\5.4\msvc2012_opengl\include\QtGui" "-I.\..\..\..\..\qt\5.4\msvc2012_opengl\include\QtNetwork" "-I.\..\..\..\..\qt\5.4\msvc2012_opengl\include\QtCore" "-I.\release" "-I." "-I.\..\..\..\..\qt\5.4\msvc2012_opengl\mkspecs\win32-msvc2012" "-I.\GeneratedFiles"
^C:\USERS\HAKAN\DESKTOP\PROJE\INTERFACE.H
setlocalif errorlevel 1 goto VCEndif errorlevel 1 goto VCEndendlocal"C:\Qt\5.4\msvc2012_opengl\bin\moc.exe"  "C:\Users\Hakan\Desktop\Proje\interface.h" -o "Release\moc_interface.cpp"  -D_WINDOWS -DUNICODE -DWIN32 -DQT_NO_DEBUG -DQT_MULTIMEDIA_LIB -DQT_WIDGETS_LIB -DQT_GUI_LIB -DQT_NETWORK_LIB -DQT_CORE_LIB -DNDEBUG  "-IC:\opencv\build\include\opencv2" "-IC:\opencv\build\include\opencv" "-IC:\opencv\build\include" "-I.\..\..\..\..\qt\5.4\msvc2012_opengl\include" "-I.\..\..\..\..\qt\5.4\msvc2012_opengl\include\QtMultimedia" "-I.\..\..\..\..\qt\5.4\msvc2012_opengl\include\QtWidgets" "-I.\..\..\..\..\qt\5.4\msvc2012_opengl\include\QtGui" "-I.\..\..\..\..\qt\5.4\msvc2012_opengl\include\QtNetwork" "-I.\..\..\..\..\qt\5.4\msvc2012_opengl\include\QtCore" "-I.\release" "-I." "-I.\..\..\..\..\qt\5.4\msvc2012_opengl\mkspecs\win32-msvc2012" "-I.\GeneratedFiles"
^C:\USERS\HAKAN\DESKTOP\PROJE\INTERFACE.UI
"C:\Qt\5.4\msvc2012_opengl\bin\uic.exe" -o ".\GeneratedFiles\ui_interface.h" "C:\Users\Hakan\Desktop\Proje\interface.ui"
